190.78.216.129:8080
137.135.166.225:8121
159.226.101.55:8080
202.162.214.118:3128
190.198.140.238:8080
5.2.73.71:1080
103.68.34.174:8080
199.116.113.206:8080
186.93.139.194:8080
86.105.5.36:3128
120.52.73.98:8089
154.46.204.34:80
94.23.81.70:8081
186.89.18.75:8080
120.52.73.97:95
201.243.232.124:8080
46.229.222.201:8080
137.135.166.225:8128
195.46.167.164:5555
168.63.24.174:8137
1.31.98.128:8998
52.34.230.6:8088
120.52.73.98:8081
59.49.129.60:8998
211.249.50.216:80
190.202.177.146:8080
120.52.73.98:8085
46.218.73.162:80
186.95.64.69:8080
142.0.128.220:8088
42.224.8.188:8998
120.52.73.98:96
213.63.135.203:80
188.166.147.168:8000
201.242.105.149:8080
46.29.155.79:80
195.154.189.72:80
80.241.217.253:3128
120.52.73.97:8100
186.91.115.140:8080
123.30.191.141:80
95.170.202.110:8080
120.52.73.98:8091
120.52.73.98:85
120.52.73.97:91
183.63.14.107:808
201.209.54.5:8080
190.201.19.217:8080
93.93.42.250:80
120.52.73.97:8082
120.52.73.98:8094
186.90.236.37:8080
12.33.254.195:3128
190.198.238.63:8080
103.8.163.162:80
112.74.72.1:8080
91.180.202.47:80
120.52.73.98:84
103.228.152.11:80
195.45.104.155:80
5.189.162.211:3128
116.115.20.206:8998
120.52.73.97:8081
47.91.151.193:3128
104.207.147.50:3128
137.74.254.198:3128
182.39.153.2:8118
186.90.114.138:8080
182.244.155.232:8998
192.187.100.28:3128
86.105.5.21:3128
94.23.157.1:8081
213.157.249.154:8080
200.208.119.91:3128
150.188.232.243:80
123.57.225.102:8088
181.41.197.200:8080
180.153.87.22:18080
201.219.162.59:8080
112.82.230.119:8118
27.206.169.222:8998
52.59.65.124:8083
142.0.128.219:8088
97.77.104.22:80
195.154.118.49:8080
128.199.189.187:3128
178.161.149.18:3128
106.46.136.89:808
61.143.158.238:808
111.76.133.75:808
177.124.102.12:8080
79.170.202.186:80
120.52.73.97:96
186.89.118.155:8080
186.95.55.125:8080
27.9.64.141:8998
110.17.110.38:8998
125.124.67.201:3128
5.2.64.78:1080
82.224.48.173:80
